%YAML 1.1
%TAG !u! tag:unity3d.com,2011:
--- !u!1045 &1
EditorBuildSettings:
  m_ObjectHideFlags: 0
  serializedVersion: 2
  m_Scenes:
  - enabled: 1
    path: Assets/Scenes/Initial.unity
    guid: 7541a838b074d9341835c24d3f5b1a0e
  m_configObjects:
    Unity.XR.Oculus.Settings: {fileID: 11400000, guid: e0691bc25a20cdb4b81e06032b8ce36d,
      type: 2}
    com.unity.addressableassets: {fileID: 11400000, guid: 2e543f78bc81c7745867c87146c8314a,
      type: 2}
    com.unity.xr.management.loader_settings: {fileID: 11400000, guid: ec86c9f27af55c642af325f98fafd0d8,
      type: 2}
